<svg width="53" height="43" viewBox="0 0 53 43" fill="none" xmlns="http://www.w3.org/2000/svg">
<path d="M51.875 31.25H50.75V23.6562C50.75 22.8125 50.3281 21.8984 49.6953 21.2656L42.7344 14.3047C42.1016 13.6719 41.1875 13.25 40.3438 13.25H37.25V9.875C37.25 8.04688 35.7031 6.5 33.875 6.5H11.375C9.47656 6.5 8 8.04688 8 9.875V32.375C8 34.2734 9.47656 35.75 11.375 35.75H12.5C12.5 39.4766 15.5234 42.5 19.25 42.5C22.9766 42.5 26 39.4766 26 35.75H35C35 39.4766 38.0234 42.5 41.75 42.5C45.4766 42.5 48.5 39.4766 48.5 35.75H51.875C52.4375 35.75 53 35.2578 53 34.625V32.375C53 31.8125 52.4375 31.25 51.875 31.25ZM19.25 39.125C17.3516 39.125 15.875 37.6484 15.875 35.75C15.875 33.9219 17.3516 32.375 19.25 32.375C21.0781 32.375 22.625 33.9219 22.625 35.75C22.625 37.6484 21.0781 39.125 19.25 39.125ZM41.75 39.125C39.8516 39.125 38.375 37.6484 38.375 35.75C38.375 33.9219 39.8516 32.375 41.75 32.375C43.5781 32.375 45.125 33.9219 45.125 35.75C45.125 37.6484 43.5781 39.125 41.75 39.125ZM47.375 24.5H37.25V16.625H40.3438L47.375 23.6562V24.5Z" fill="#C2C2C2"/>
<path d="M11 2.53125C6.18359 2.53125 2.28125 6.43359 2.28125 11.25C2.28125 16.0664 6.18359 19.9688 11 19.9688C15.8164 19.9688 19.7188 16.0664 19.7188 11.25C19.7188 6.43359 15.8164 2.53125 11 2.53125Z" fill="white"/>
<path fill-rule="evenodd" clip-rule="evenodd" d="M0.28125 11.25C0.28125 5.32902 5.07902 0.53125 11 0.53125C16.921 0.53125 21.7188 5.32902 21.7188 11.25C21.7188 17.171 16.921 21.9688 11 21.9688C5.07902 21.9688 0.28125 17.171 0.28125 11.25ZM2.28125 11.25C2.28125 6.43359 6.18359 2.53125 11 2.53125C15.8164 2.53125 19.7188 6.43359 19.7188 11.25C19.7188 16.0664 15.8164 19.9688 11 19.9688C6.18359 19.9688 2.28125 16.0664 2.28125 11.25Z" fill="#C2C2C2"/>
<path d="M8.56641 8.14823V6.24023H11.8904V15.0002H9.75441V8.14823H8.56641Z" fill="#C2C2C2"/>
</svg>
